{
    "name": "Interactive demo",
    "description": "Interactive demo",
    "author": "Me",
    "licensed": false,
    "appdefversion": 2,
    "classifications": [
    "System"
    ],
    "machines": [
    "*"
    ],
    "vault-types": [
    "FILE",
    "BLOCK",
    "BLOCK_ARRAY",
    "OBJECT"
    ],
    "commands": {
        "calculator": {
            "path": "/bin/calculator",
            "name": "Make some calculations in a shell",
            "description": "The best calculator ever!",
            "webshell": true,
            "parameters": {}
        },
        "desktop_calculator": {
            "path": "/usr/bin/xfce4-terminal",
            "name": "Make some calculations in a desktop",
            "description": "The best calculator ever, in a desktop!",
            "desktop": true,
            "parameters": {
                "execute": {
                    "name": "execute",
                    "description": "set executable",
                    "type": "CONST",
                    "value": "--execute",
                    "positional": true,
                    "required": true
                },
                "the_binary": {
                    "name": "the_binary",
                    "description": "The target binary",
                    "type": "CONST",
                    "value": "/bin/calculator",
                    "positional": true,
                    "required": true
                }
            }
        }
    },
    "image": {
        "data": "",
        "type": "image/png"
    }
}
    